{
	"info": {
		"_postman_id": "ba28c83e-09c0-4f99-b614-f10dc3f642e3",
		"name": "gft",
		"schema": "https://schema.getpostman.com/json/collection/v2.1.0/collection.json"
	},
	"item": [
		{
			"name": "google",
			"request": {
				"method": "GET",
				"header": [],
				"url": {
					"raw": "https://maps.googleapis.com/maps/api/directions/json?key=AIzaSyDdk3at7WYfSQSwgyTqfuWQeNx2BoKUg8k&origin=-25.460097,-49.216688&destination=-25.461251,-49.231315",
					"protocol": "https",
					"host": [
						"maps",
						"googleapis",
						"com"
					],
					"path": [
						"maps",
						"api",
						"directions",
						"json"
					],
					"query": [
						{
							"key": "key",
							"value": "AIzaSyDdk3at7WYfSQSwgyTqfuWQeNx2BoKUg8k"
						},
						{
							"key": "origin",
							"value": "-25.460097,-49.216688"
						},
						{
							"key": "destination",
							"value": "-25.461251,-49.231315"
						}
					]
				}
			},
			"response": []
		},
		{
			"name": "/gftest/especialidade",
			"request": {
				"method": "GET",
				"header": [],
				"url": {
					"raw": "http://localhost:8080/gftest/especialidade",
					"protocol": "http",
					"host": [
						"localhost"
					],
					"port": "8080",
					"path": [
						"gftest",
						"especialidade"
					]
				}
			},
			"response": []
		},
		{
			"name": "/gftest/prestador/especialidade/{idEspecialidade}",
			"request": {
				"method": "GET",
				"header": [],
				"url": {
					"raw": "http://localhost:8080/gftest/prestador/especialidade/4",
					"protocol": "http",
					"host": [
						"localhost"
					],
					"port": "8080",
					"path": [
						"gftest",
						"prestador",
						"especialidade",
						"4"
					]
				}
			},
			"response": []
		},
		{
			"name": "/gftest/prestador/{latitude}/{longitude}/{idEspecialidade}",
			"request": {
				"method": "GET",
				"header": [],
				"url": {
					"raw": "http://localhost:8080/gftest/prestador/-25.501243/-49.232564/1",
					"protocol": "http",
					"host": [
						"localhost"
					],
					"port": "8080",
					"path": [
						"gftest",
						"prestador",
						"-25.501243",
						"-49.232564",
						"1"
					]
				}
			},
			"response": []
		}
	],
	"protocolProfileBehavior": {}
}